user;osition;device;x;y;z;
1;0;3;-17.42603169361169;-22.688333611296787;38.40823731343778;
1;0;4;0.22379747832902613;1.6015822088620042;-3.3000502220322177;
1;0;5;-1.2254952506213268;5.633885041779768;103.48935437720543;
1;1;3;-17.34814597096463;-19.89947705035636;31.141512822366572;
1;1;4;2.2026918386199763;1.3886431196326987;-2.854667022422992;
1;1;5;-6.151670040275906;6.8438778320500795;90.52881327597547;
1;2;3;-15.95108480278925;-18.07166951447709;26.083349900930045;
1;2;4;0.8385932134157952;0.8661850015396066;-4.497146320689229;
1;2;5;-10.895231797273526;9.285362834419233;85.8719740139958;
1;3;3;-15.325315601878014;-22.936334759827492;33.62469771425601;
1;3;4;-0.879353345592342;-2.7321645616342045;-2.3835788712135044;
1;3;5;2.294841192423748;9.78496238231847;96.08291608192899;
1;4;3;-14.680208348382836;-18.987967241922973;30.189777097659338;
1;4;4;2.4650411081150163;-0.42263294306631616;-3.4383182687355567;
1;4;5;-3.7473103883976666;11.249632230443709;81.697316017044;
1;5;3;-14.811881745802477;-17.863182056505444;22.913116539889344;
1;5;4;1.9652190392495237;0.8919783788216522;1.2058795777440803;
1;5;5;-9.332432862450151;14.078172066508536;79.89965321982275;
1;6;3;-14.135089243456706;-21.96482330575648;26.731202311640025;
1;6;4;-1.7076925798606724;0.9727760054243172;-2.49725646688025;
1;6;5;5.605874603741222;16.344533517626093;91.05315100179794;
1;7;3;-13.503781270679523;-19.11998482095156;24.98383763923779;
1;7;4;-0.754736144143063;0.21893085386216976;-0.05991619992244408;
1;7;5;-2.3538882365450604;16.998030892653958;80.39264712191466;
1;8;3;-9.734791004394694;-16.63453758420525;22.645343323054615;
1;8;4;0.9783765992377996;0.1783781834801774;0.75453372208322;
1;8;5;-7.373888020022925;19.064989131645586;80.56649458435756;
2;0;3;-18.099586482521666;-21.91612753808227;38.26506165149938;
2;0;4;3.058967025796855;8.04711785974742;23.540820368144185;
2;0;5;-1.0726416613057879;5.421479529433226;101.98501818998609;
2;1;3;-17.230896531359175;-19.760083411556902;30.804602969351308;
2;1;4;2.661338650539753;7.34046420015583;16.250698260647184;
2;1;5;-5.3883011101246545;6.694052241795362;91.01908073809265;
2;2;3;-16.1678108568793;-18.11943415816623;25.743096968651084;
2;2;4;1.8300877001244393;8.375882337448008;12.65582972749385;
2;2;5;-10.153067006111224;9.515887181717197;87.98018887142551;
2;3;3;-15.431930364298093;-22.944144702968867;33.7016777615257;
2;3;4;4.747012247627598;8.198456381605805;18.351327769376503;
2;3;5;2.058988075420949;9.593700703737252;94.90922387265657;
2;4;3;-14.68181785252407;-18.910762154282388;29.719068814664052;
2;4;4;3.3942147967558824;6.557132304405645;9.811375235278646;
2;4;5;-3.9828307944648618;11.468825742723268;82.81099076257973;
2;5;3;-14.77728981534129;-17.92709052406213;22.540998847969373;
2;5;4;5.290449694016525;8.28347545448144;3.7640834114895974;
2;5;5;-9.452668585455081;13.846018812697025;83.2739419487117;
2;6;3;-13.857416127045234;-21.765074745362252;26.854532645931872;
2;6;4;4.376195783690363;5.093853085524874;11.472589511698112;
2;6;5;4.942991199943224;15.444373907592617;93.38340920735382;
2;7;3;-13.561672190141294;-19.135528381777124;25.151293947685925;
2;7;4;3.6552095968138305;5.845205414861721;6.102573544992878;
2;7;5;-2.10265631199621;17.50873176419877;77.80989642752716;
2;8;3;-9.754976677625445;-16.5451320703266;22.66081376380933;
2;8;4;5.139659923512025;7.2600378300058726;-2.4852541510587765;
2;8;5;-7.084439249280711;19.022771396590752;81.73118154758254;
3;0;3;-17.753587114168827;-21.828630828059673;38.07009308417499;
3;0;4;3.064654769134499;8.526564641448486;24.175510590369043;
3;0;5;-1.0586352947008209;5.746255166584737;104.7127293225025;
3;1;3;-17.255156472293983;-19.74096409160549;30.547099682398716;
3;1;4;2.3972249755976556;7.554707861816343;16.782375442762042;
3;1;5;-5.797038617298533;6.559867000537867;90.83710576310366;
3;2;3;-16.296036255944962;-18.014311161793348;25.739206092377884;
3;2;4;1.7324472017783754;8.663345978906426;12.932063339307886;
3;2;5;-10.323127632011364;9.118845241798475;85.37706358669848;
3;3;3;-15.380387683580476;-22.950078834705558;33.66056880114459;
3;3;4;4.703593864762901;8.490764892734825;19.119379546855345;
3;3;5;2.2134578370929088;9.901557374205748;95.16856972696753;
3;4;3;-14.68181785252407;-18.910762154282388;29.719068814664052;
3;4;4;3.2293598523655564;6.535868941995279;10.085217321582427;
3;4;5;-4.103820282395677;11.098185833899754;83.89306001694054;
3;5;3;-14.824131256590842;-17.756786994952506;22.567674394152643;
3;5;4;5.1508519332272105;8.006552784912408;3.4744136040742646;
3;5;5;-8.674940374553119;13.94782152394407;82.99334719572174;
3;6;3;-14.033841609862248;-21.8849443959096;26.766786844014355;
3;6;4;4.2467521589802635;5.013564416450726;11.558872060144491;
3;6;5;5.45199989603946;15.277032327377363;88.10780684428758;
3;7;3;-13.506398199507844;-19.1251294467189;25.005070317102447;
3;7;4;3.501709500224592;5.673242649756511;6.302256281250654;
3;7;5;-1.9196114087023997;17.558109038497722;78.17683010557845;
3;8;3;-9.71310752166238;-16.340286229955606;22.441340712877125;
3;8;4;5.003163380971061;6.99233904772458;-2.7431089159802684;
3;8;5;-6.858814500897276;19.0102001781306;82.55872961152662;
4;0;3;-18.00476495103312;-21.729457444296067;37.94859440348032;
4;0;4;3.2446765037877547;8.094177360335879;23.198588888610296;
4;0;5;-0.5906044179504448;5.804865313968864;104.56399503217496;
4;1;3;-17.230712064078055;-19.618324920923808;30.720684669804953;
4;1;4;2.3737307027989285;7.550999538224682;16.636756738717466;
4;1;5;-5.436428898478468;6.17575680376368;87.30825250256838;
4;2;3;-16.248828582465435;-17.824650330165248;25.696994989652573;
4;2;4;1.680205963905801;8.521959597064058;12.535012120286572;
4;2;5;-10.31597585835634;9.388849049359596;87.06092286600484;
4;3;3;-15.342707920122779;-22.870144045973547;33.60013922888737;
4;3;4;4.716804079234182;7.92288156375922;17.99668941468103;
4;3;5;2.054582612476164;9.631262654885083;96.92023739068718;
4;4;3;-14.720193601317611;-18.798699914194835;30.082199903530416;
4;4;4;3.105387135129704;6.3930763699536675;10.049870063768239;
4;4;5;-3.9452094305231302;11.37809158570692;82.41414662138143;
4;5;3;-14.851714214424245;-17.677724503463253;22.467831602235222;
4;5;4;5.013106222532671;7.890086517073718;3.5618466334539085;
4;5;5;-8.494650875078792;14.132014422321454;83.59420675268882;
4;6;3;-13.84776593288639;-21.72022146057955;26.5754132115897;
4;6;4;4.191921898890454;4.796787531420739;11.45344786090086;
4;6;5;5.308766939434991;15.339444165443867;88.89159104289924;
4;7;3;-13.570188555443554;-18.987868599848703;24.974725869397897;
4;7;4;3.5947015172399213;5.4959552076794;5.555291314680823;
4;7;5;-1.9196114087023997;17.558109038497722;78.17683010557845;
4;8;3;-9.737608150082174;-16.159881346204415;22.484327940692065;
4;8;4;4.962115715325384;7.007117240009197;-2.8095803276314326;
4;8;5;-6.858814500897276;19.0102001781306;82.55872961152662;
5;0;3;-18.117100522614283;-21.703554352219605;38.04028207511107;
5;0;4;2.999532965355957;7.873938611855694;23.113362442869622;
5;0;5;-0.979486453244343;5.722046839305817;102.48489413326742;
5;1;3;-17.359687835609673;-19.72588207478096;30.637350954970557;
5;1;4;2.249455516092335;7.25608251936263;16.595533036141997;
5;1;5;-5.873709603987512;6.820109507148867;91.23613083324226;
5;2;3;-16.27219034391133;-17.84448330311771;25.542275230532955;
5;2;4;1.667453785369757;8.407644064446073;12.31989555916643;
5;2;5;-10.270181395653125;9.254448525588371;85.64645668819988;
5;3;3;-15.438916363625815;-22.912446981020985;33.59081999700814;
5;3;4;4.716804079234182;7.92288156375922;17.99668941468103;
5;3;5;2.059142117222306;9.88317120115504;95.26031263964903;
5;4;3;-14.66898609886756;-18.773529322730386;30.11906156917442;
5;4;4;3.0341113194691642;6.246074919041997;9.9612164678413;
5;4;5;-3.9743654694307367;11.147940108892294;81.95972399486294;
5;5;3;-14.839423786573821;-17.6529665168022;22.559635443552843;
5;5;4;5.158268421049613;7.798063759696228;3.5753186587570704;
5;5;5;-8.847340889182808;14.01966229644899;81.18637864560084;
5;6;3;-13.810528336310256;-21.5477700144213;26.587074290863242;
5;6;4;4.168409054487167;4.748004990444517;11.287265111230427;
5;6;5;4.772437883909287;15.221163818019928;93.54021279722406;
5;7;3;-13.558746090903012;-18.922395111323176;24.904354237502584;
5;7;4;3.4802702724612242;5.475770657387707;5.738997266950574;
5;7;5;-2.302114323919552;17.32145772788849;79.18930503781;
5;8;3;-9.68879387024069;-16.105126920377707;22.4531257131541;
5;8;4;4.990854679515751;6.988622776070089;-2.9765285023485055;
5;8;5;-7.201169347319844;19.080145510021584;81.65693791734698;
