user;osition;device;x;y;z;
1;0;1;0.16860485235181777;-8.116991837779912;19.75547188846172;
1;0;2;5.88659625212865;-6.578667434860335;-22.954899361801814;
1;1;1;2.1789543235146613;-7.250627245412606;16.3172864707508;
1;1;2;-1.9905254703007946;-4.8527863691653135;-22.81374754196835;
1;2;1;4.93390398027478;-5.884973755656345;15.208132911715893;
1;2;2;-9.255093818405928;-9.359400268948416;-35.71574933409319;
1;3;1;0.38358220928953113;-8.600192711432328;16.042487585497348;
1;3;2;4.395391784638996;-5.660508355478133;-22.262870091365038;
1;4;1;3.1012952532426468;-8.896872032487952;15.30254780545123;
1;4;2;2.7528070583513564;-5.657678700891067;-35.633484910005784;
1;5;1;5.92220056012235;-7.84518643657446;13.409222040289059;
1;5;2;-1.0260444215528928;-5.768885090500408;-35.90240382308791;
1;6;1;1.5761637317528883;-11.365625658877267;12.512335352503369;
1;6;2;7.923923654656945;-2.515543687709959;-28.372381640719478;
1;7;1;-0.39882424095613533;-12.2841781878802;11.700094454564622;
1;7;2;2.489610591738783;0.6095267990774642;-36.61200580028098;
1;8;1;7.8716012921410226;-9.509612130392187;10.410354959721666;
1;8;2;-5.326431272380245;0.8640711247034853;-28.450674008548265;
2;0;1;2.1355811868862506;-7.337834572497348;17.889099969354373;
2;0;2;7.452768563792025;-13.012591246338909;-24.290736249799654;
2;1;1;3.620363690061277;-6.0880597214950205;16.033239304913387;
2;1;2;-4.114736990558468;-14.332381292575095;-38.50846823031777;
2;2;1;6.315045948974841;-4.84178512744417;14.926875403332721;
2;2;2;-7.937727596291136;-12.340637052062577;-31.04391855133955;
2;3;1;1.862532186467174;-8.248707693348141;15.639705058807564;
2;3;2;2.280581878446255;-6.483609433307487;-18.160983931325926;
2;4;1;4.553341434553105;-8.866426287568775;15.354448505249653;
2;4;2;-1.3386603056984105;-5.981873802946074;-26.24836477303105;
2;5;1;7.552270809123298;-7.8241573668606925;13.019667351105863;
2;5;2;-5.239601468578389;-3.185058372992121;-25.73720910612988;
2;6;1;4.051502724637223;-10.356571963271621;9.66429298005847;
2;6;2;5.228558232790972;-0.17478803743352153;-27.623784174865957;
2;7;1;-5.900882044870013;-13.780822840755386;12.538031615509414;
2;7;2;3.466419942865648;0.9092854407855523;-29.18396853558074;
2;8;1;8.35054818827432;-9.591340255207514;10.544751067172488;
2;8;2;-5.175049181911327;0.964865144876443;-32.284271842143724;
3;0;1;2.7607151177924054;-6.973573207880292;20.12681693695664;
3;0;2;8.649210719361925;-12.875274032634278;-29.816568991817135;
3;1;1;4.32220302655124;-6.056503812281678;17.171459994535603;
3;1;2;-3.4566961244592065;-12.340356342859664;-29.33159713728078;
3;2;1;7.286846117780438;-4.995753971179383;16.40896160348914;
3;2;2;-8.296121410978307;-13.10635011891013;-37.09250924842748;
3;3;1;2.4949383081720544;-8.218825226977941;16.56300663070199;
3;3;2;2.5119019770826565;-4.7484046715355515;-18.362510634380786;
3;4;1;5.120300271063169;-8.842083799851459;16.431724284829116;
3;4;2;-2.2453756191464;-6.1453999536011645;-36.56166177292192;
3;5;1;8.223468690433487;-7.710017170363145;14.218323036152583;
3;5;2;-5.8275436906123925;-4.540393283211822;-23.290951144062;
3;6;1;4.686823365014207;-10.036348769404407;10.82931637840721;
3;6;2;-2.6045504431663407;-1.646361811990469;-22.681717285092375;
3;7;1;-2.648163160524552;-11.298950161516823;9.810794864912719;
3;7;2;-2.3485562269362497;0.8451096827545449;-28.90560591854725;
3;8;1;8.41222273165138;-9.822627726414153;11.166263315251468;
3;8;2;-9.270849773522343;0.43402908745316665;-26.28966932868442;
4;0;1;1.9592349801074684;-7.291257534392896;21.91179306329144;
4;0;2;10.309205042545472;-14.17743779277761;-41.82434178559257;
4;1;1;3.850430266803107;-6.138483499452271;18.248173866138075;
4;1;2;-2.9381128598526347;-12.683614449184269;-34.70345241963533;
4;2;1;7.021793246609254;-5.072484730661068;16.09115506115938;
4;2;2;-9.306220830462218;-12.342630339406037;-37.705533171059585;
4;3;1;3.222385546437833;-7.584530953516409;16.08812717781411;
4;3;2;4.099825045532862;-5.496949149494226;-23.026565940294702;
4;4;1;5.770995459483762;-7.940387701427026;15.684091645552595;
4;4;2;-2.732645113354998;-6.602908473390017;-34.85109810804306;
4;5;1;8.807968011957154;-6.8134687982062845;13.280731011291362;
4;5;2;-4.69521477899019;-4.302752541865256;-22.44374409872016;
4;6;1;3.8306388598383916;-10.580603050910486;11.856632132380337;
4;6;2;2.0861561975208898;0.8537888546956558;-24.932818046221996;
4;7;1;0.23540848010806403;-10.812743283691253;10.634112466999431;
4;7;2;7.348957177635579;0.6231113245212149;-30.6473630021007;
4;8;1;8.567111206395513;-9.796457977318337;11.524329408633237;
4;8;2;-5.63685683468106;0.4524876696065362;-28.716207832774437;
5;0;1;2.0265867033333915;-7.030124921299053;21.567619236267465;
5;0;2;7.019021160332919;-11.39862290819574;-22.486317325437902;
5;1;1;4.136776724792357;-5.767014292647647;17.424107103042832;
5;1;2;2.5176030764373474;-9.728012985624884;-25.1769226782884;
5;2;1;8.271893103266988;-4.593859522229228;13.148712424209567;
5;2;2;1.1705494104583085;-12.197588520271246;-40.670696946572484;
5;3;1;3.92968526493674;-7.511674103055754;14.18492842695815;
5;3;2;15.7073136436676;-12.275720900015141;-81.88275933104141;
5;4;1;6.2844402056650175;-7.385245560699144;13.344574480291405;
5;4;2;5.99514489617406;-6.23098960125303;-24.746099235045406;
5;5;1;9.042708410526688;-6.8402730953934725;12.631981350381603;
5;5;2;-1.196930555484668;-4.60405201404061;-24.047420023947318;
5;6;1;6.097657980275392;-8.901942908903598;9.118715206117892;
5;6;2;7.809635905538912;-0.4228574581890748;-29.187663819023502;
5;7;1;-2.7572842872624896;-10.794187918861335;12.105262245183553;
5;7;2;10.171937124733317;-0.5471206670361133;-27.998012512021962;
5;8;1;8.719636872035418;-9.72916832064377;11.64911865077499;
5;8;2;-2.2357787711288113;1.378306833078359;-36.52539097573424;
